{
    "type": "application",
    "source-directories": [
        "src",
        "elm-kinto/src"
    ],
    "elm-version": "0.19.0",
    "dependencies": {
        "direct": {
            "NoRedInk/elm-json-decode-pipeline": "1.0.0",
            "elm/browser": "1.0.0",
            "elm/core": "1.0.0",
            "elm/html": "1.0.0",
            "elm/http": "1.0.0",
            "elm/json": "1.0.0",
            "elm/parser": "1.1.0",
            "elm/url": "1.0.0",
            "elm-community/dict-extra": "2.4.0",
            "elm-community/list-extra": "8.0.0",
            "lukewestby/elm-http-builder": "6.0.0",
            "rtfeldman/elm-css": "15.1.0",
            "truqu/elm-base64": "2.0.4"
        },
        "indirect": {
            "Skinney/murmur3": "2.0.7",
            "elm/regex": "1.0.0",
            "elm/time": "1.0.0",
            "elm/virtual-dom": "1.0.0",
            "rtfeldman/elm-hex": "1.0.0"
        }
    },
    "test-dependencies": {
        "direct": {
            "elm-explorations/test": "1.1.0"
        },
        "indirect": {
            "elm/random": "1.0.0"
        }
    }
}